<svg xmlns="http://www.w3.org/2000/svg" width="18" height="10" viewBox="0 0 18 10">
    <g fill="none" fill-rule="evenodd" stroke="#FFF">
        <path d="M17 5H.075M13.31 9.408L17 4.745 13.31 0"/>
    </g>
</svg>
